COVID
…
global <- global %>% filter(cases > 0)

global %>% filter(cases > 28000000)

## # A tibble: 1,545 x 5
##    Province_State Country_Region date          cases deaths
##    <chr>          <chr>          <date>        <dbl>  <dbl>
##  1 <NA>           Brazil         2022-02-18 28072238 643340
##  2 <NA>           Brazil         2022-02-19 28177367 644195
##  3 <NA>           Brazil         2022-02-20 28218180 644592
##  4 <NA>           Brazil         2022-02-21 28258458 644918
##  5 <NA>           Brazil         2022-02-22 28361951 645735
##  6 <NA>           Brazil         2022-02-23 28493336 646714
##  7 <NA>           Brazil         2022-02-24 28589235 647703
##  8 <NA>           Brazil         2022-02-25 28679671 648496
##  9 <NA>           Brazil         2022-02-26 28749552 649184
## 10 <NA>           Brazil         2022-02-27 28776794 649437
## # ... with 1,535 more rows
## # i Use `print(n = ...)` to see more rows

us_cases %>%
  pivot_longer(cols = -(UID:Combined_Key),
               names_to = 'date',
               values_to = "cases")

## # A tibble: 3,281,844 x 13
##         UID iso2  iso3  code3  FIPS Admin2  Provin~1 Count~2   Lat Long_ Combi~3
##       <dbl> <chr> <chr> <dbl> <dbl> <chr>   <chr>    <chr>   <dbl> <dbl> <chr>  
##  1 84001001 US    USA     840  1001 Autauga Alabama  US       32.5 -86.6 Autaug~
##  2 84001001 US    USA     840  1001 Autauga Alabama  US       32.5 -86.6 Autaug~
##  3 84001001 US    USA     840  1001 Autauga Alabama  US       32.5 -86.6 Autaug~
##  4 84001001 US    USA     840  1001 Autauga Alabama  US       32.5 -86.6 Autaug~
##  5 84001001 US    USA     840  1001 Autauga Alabama  US       32.5 -86.6 Autaug~
##  6 84001001 US    USA     840  1001 Autauga Alabama  US       32.5 -86.6 Autaug~
##  7 84001001 US    USA     840  1001 Autauga Alabama  US       32.5 -86.6 Autaug~
##  8 84001001 US    USA     840  1001 Autauga Alabama  US       32.5 -86.6 Autaug~
##  9 84001001 US    USA     840  1001 Autauga Alabama  US       32.5 -86.6 Autaug~
## 10 84001001 US    USA     840  1001 Autauga Alabama  US       32.5 -86.6 Autaug~
## # ... with 3,281,834 more rows, 2 more variables: date <chr>, cases <dbl>, and
## #   abbreviated variable names 1: Province_State, 2: Country_Region,
## #   3: Combined_Key
## # i Use `print(n = ...)` to see more rows, and `colnames()` to see all variable names

us_cases <- us_cases %>%
  pivot_longer(cols = -(UID:Combined_Key),
               names_to = "date",
               values_to = "cases") %>%
  select(Admin2:cases) %>%
  mutate(date = mdy(date)) %>%
  select((-c(Lat, Long_)))

us_cases

## # A tibble: 3,281,844 x 6
##    Admin2  Province_State Country_Region Combined_Key         date       cases
##    <chr>   <chr>          <chr>          <chr>                <date>     <dbl>
##  1 Autauga Alabama        US             Autauga, Alabama, US 2020-01-22     0
##  2 Autauga Alabama        US             Autauga, Alabama, US 2020-01-23     0
##  3 Autauga Alabama        US             Autauga, Alabama, US 2020-01-24     0
##  4 Autauga Alabama        US             Autauga, Alabama, US 2020-01-25     0
##  5 Autauga Alabama        US             Autauga, Alabama, US 2020-01-26     0
##  6 Autauga Alabama        US             Autauga, Alabama, US 2020-01-27     0
##  7 Autauga Alabama        US             Autauga, Alabama, US 2020-01-28     0
##  8 Autauga Alabama        US             Autauga, Alabama, US 2020-01-29     0
##  9 Autauga Alabama        US             Autauga, Alabama, US 2020-01-30     0
## 10 Autauga Alabama        US             Autauga, Alabama, US 2020-01-31     0
## # ... with 3,281,834 more rows
## # i Use `print(n = ...)` to see more rows

us_deaths

## # A tibble: 3,342 x 994
##         UID iso2  iso3  code3  FIPS Admin2   Provi~1 Count~2   Lat Long_ Combi~3
##       <dbl> <chr> <chr> <dbl> <dbl> <chr>    <chr>   <chr>   <dbl> <dbl> <chr>  
##  1 84001001 US    USA     840  1001 Autauga  Alabama US       32.5 -86.6 Autaug~
##  2 84001003 US    USA     840  1003 Baldwin  Alabama US       30.7 -87.7 Baldwi~
##  3 84001005 US    USA     840  1005 Barbour  Alabama US       31.9 -85.4 Barbou~
##  4 84001007 US    USA     840  1007 Bibb     Alabama US       33.0 -87.1 Bibb, ~
##  5 84001009 US    USA     840  1009 Blount   Alabama US       34.0 -86.6 Blount~
##  6 84001011 US    USA     840  1011 Bullock  Alabama US       32.1 -85.7 Bulloc~
##  7 84001013 US    USA     840  1013 Butler   Alabama US       31.8 -86.7 Butler~
##  8 84001015 US    USA     840  1015 Calhoun  Alabama US       33.8 -85.8 Calhou~
##  9 84001017 US    USA     840  1017 Chambers Alabama US       32.9 -85.4 Chambe~
## 10 84001019 US    USA     840  1019 Cherokee Alabama US       34.2 -85.6 Cherok~
## # ... with 3,332 more rows, 983 more variables: Population <dbl>,
## #   `1/22/20` <dbl>, `1/23/20` <dbl>, `1/24/20` <dbl>, `1/25/20` <dbl>,
## #   `1/26/20` <dbl>, `1/27/20` <dbl>, `1/28/20` <dbl>, `1/29/20` <dbl>,
## #   `1/30/20` <dbl>, `1/31/20` <dbl>, `2/1/20` <dbl>, `2/2/20` <dbl>,
## #   `2/3/20` <dbl>, `2/4/20` <dbl>, `2/5/20` <dbl>, `2/6/20` <dbl>,
## #   `2/7/20` <dbl>, `2/8/20` <dbl>, `2/9/20` <dbl>, `2/10/20` <dbl>,
## #   `2/11/20` <dbl>, `2/12/20` <dbl>, `2/13/20` <dbl>, `2/14/20` <dbl>, ...
## # i Use `print(n = ...)` to see more rows, and `colnames()` to see all variable names
…
US <- us_cases %>%
  full_join(us_deaths)

## Joining, by = c("Admin2", "Province_State", "Country_Region", "Combined_Key",
## "date")

US

## # A tibble: 3,281,844 x 8
##    Admin2  Province_State Country_Region Combi~1 date       cases Popul~2 deaths
##    <chr>   <chr>          <chr>          <chr>   <date>     <dbl>   <dbl>  <dbl>
##  1 Autauga Alabama        US             Autaug~ 2020-01-22     0   55869      0
##  2 Autauga Alabama        US             Autaug~ 2020-01-23     0   55869      0
##  3 Autauga Alabama        US             Autaug~ 2020-01-24     0   55869      0
##  4 Autauga Alabama        US             Autaug~ 2020-01-25     0   55869      0
##  5 Autauga Alabama        US             Autaug~ 2020-01-26     0   55869      0
##  6 Autauga Alabama        US             Autaug~ 2020-01-27     0   55869      0
##  7 Autauga Alabama        US             Autaug~ 2020-01-28     0   55869      0
##  8 Autauga Alabama        US             Autaug~ 2020-01-29     0   55869      0
##  9 Autauga Alabama        US             Autaug~ 2020-01-30     0   55869      0
## 10 Autauga Alabama        US             Autaug~ 2020-01-31     0   55869      0
## # ... with 3,281,834 more rows, and abbreviated variable names 1: Combined_Key,
## #   2: Population
## # i Use `print(n = ...)` to see more rows
…
us_by_state <- US %>%
  group_by(Province_State, Country_Region, date) %>%
  summarize(cases = sum(cases), deaths = sum(deaths),
            Population = sum(Population)) %>%
  mutate(deaths_per_mill = deaths * 1000000 / Population) %>%
  select(Province_State, Country_Region, date,
         cases, deaths, deaths_per_mill, Population) %>%
  ungroup()

## `summarise()` has grouped output by 'Province_State', 'Country_Region'. You can
## override using the `.groups` argument.

us_by_state

## # A tibble: 56,956 x 7
##    Province_State Country_Region date       cases deaths deaths_per_mill Popul~1
##    <chr>          <chr>          <date>     <dbl>  <dbl>           <dbl>   <dbl>
##  1 Alabama        US             2020-01-22     0      0               0 4903185
##  2 Alabama        US             2020-01-23     0      0               0 4903185
##  3 Alabama        US             2020-01-24     0      0               0 4903185
##  4 Alabama        US             2020-01-25     0      0               0 4903185
##  5 Alabama        US             2020-01-26     0      0               0 4903185
##  6 Alabama        US             2020-01-27     0      0               0 4903185
##  7 Alabama        US             2020-01-28     0      0               0 4903185
##  8 Alabama        US             2020-01-29     0      0               0 4903185
##  9 Alabama        US             2020-01-30     0      0               0 4903185
## 10 Alabama        US             2020-01-31     0      0               0 4903185
## # ... with 56,946 more rows, and abbreviated variable name 1: Population
## # i Use `print(n = ...)` to see more rows
…
us_totals <- US %>%
  group_by(Country_Region, date) %>%
  summarize(cases = sum(cases), deaths = sum(deaths),
            Population = sum(Population)) %>%
  mutate(deaths_per_mill = deaths * 1000000 / Population) %>%
  select(Country_Region, date,
         cases, deaths, deaths_per_mill, Population) %>%
  ungroup()

## `summarise()` has grouped output by 'Country_Region'. You can override using
## the `.groups` argument.

us_totals

## # A tibble: 982 x 6
##    Country_Region date       cases deaths deaths_per_mill Population
##    <chr>          <date>     <dbl>  <dbl>           <dbl>      <dbl>
##  1 US             2020-01-22     1      1         0.00300  332875137
##  2 US             2020-01-23     1      1         0.00300  332875137
##  3 US             2020-01-24     2      1         0.00300  332875137
##  4 US             2020-01-25     2      1         0.00300  332875137
##  5 US             2020-01-26     5      1         0.00300  332875137
##  6 US             2020-01-27     5      1         0.00300  332875137
##  7 US             2020-01-28     5      1         0.00300  332875137
##  8 US             2020-01-29     6      1         0.00300  332875137
##  9 US             2020-01-30     6      1         0.00300  332875137
## 10 US             2020-01-31     8      1         0.00300  332875137
## # ... with 972 more rows
## # i Use `print(n = ...)` to see more rows
…
## # A tibble: 1 x 6
##   Province_State deaths cases population cases_per_thou deaths_per_thou
##   <chr>           <dbl> <dbl>      <dbl>          <dbl>           <dbl>
## 1 American Samoa     34  8247      55641           148.           0.611

us_state_totals %>% slice_max(cases_per_thou)

## # A tibble: 1 x 6
##   Province_State deaths  cases population cases_per_thou deaths_per_thou
##   <chr>           <dbl>  <dbl>      <dbl>          <dbl>           <dbl>
## 1 Alaska           1364 298178     740995           402.            1.84

us_state_totals %>% mutate(pred = predict(mod))

## # A tibble: 56 x 7
##    Province_State       deaths    cases population cases_per_thou deaths~1  pred
##    <chr>                 <dbl>    <dbl>      <dbl>          <dbl>    <dbl> <dbl>
##  1 Alabama               20422  1522135    4903185           310.    4.17   3.20
##  2 Alaska                 1364   298178     740995           402.    1.84   4.22
##  3 American Samoa           34     8247      55641           148.    0.611  1.39
##  4 Arizona               31370  2271560    7278717           312.    4.31   3.21
##  5 Arkansas              12148   951283    3017804           315.    4.03   3.25
##  6 California            96023 11260257   39512223           285.    2.43   2.91
##  7 Colorado              13307  1654124    5758736           287.    2.31   2.94
##  8 Connecticut           11365   896144    3565287           251.    3.19   2.54
##  9 Delaware               3104   308452     973764           317.    3.19   3.27
## 10 District of Columbia   1392   168439     705749           239.    1.97   2.40
## # ... with 46 more rows, and abbreviated variable name 1: deaths_per_thou
## # i Use `print(n = ...)` to see more rows

us_totals_w_pred <- us_state_totals %>% mutate(pred = predict(mod))
us_totals_w_pred

## # A tibble: 56 x 7
##    Province_State       deaths    cases population cases_per_thou deaths~1  pred
##    <chr>                 <dbl>    <dbl>      <dbl>          <dbl>    <dbl> <dbl>
##  1 Alabama               20422  1522135    4903185           310.    4.17   3.20
##  2 Alaska                 1364   298178     740995           402.    1.84   4.22
##  3 American Samoa           34     8247      55641           148.    0.611  1.39
##  4 Arizona               31370  2271560    7278717           312.    4.31   3.21
##  5 Arkansas              12148   951283    3017804           315.    4.03   3.25
##  6 California            96023 11260257   39512223           285.    2.43   2.91
##  7 Colorado              13307  1654124    5758736           287.    2.31   2.94
##  8 Connecticut           11365   896144    3565287           251.    3.19   2.54
##  9 Delaware               3104   308452     973764           317.    3.19   3.27
## 10 District of Columbia   1392   168439     705749           239.    1.97   2.40
## # ... with 46 more rows, and abbreviated variable name 1: deaths_per_thou
## # i Use `print(n = ...)` to see more rows
…
